{"student_id":"1285",
	"questions":[{
		"question_id":"1",
		"correct_answer":"0",
		"timer_preference":"elapsed",
		"notes":"This question was awesome and totally made my day.",
		"bookmark":"0",
		"answer_attempts":[{
			"answer_id":"2",
			"is_correct":"0",
			"seconds_to_complete":"10",
			"timestamp":"2013-06-20 13:44:33"
			
		},
		{
			"answer_id":"3",
			"is_correct":"1",
			"seconds_to_complete":"20"
			"timestamp":"2013-06-20 13:44:33"
		}
		
		]
		"question_id":"3",
		"correct_answer":"1",
		"timer_preference":"elapsed",
		"notes":"Nailed it",
		"bookmark":"0",
		"answer_attempts":[{
			"answer_id":"2",
			"is_correct":"0",
			"seconds_to_complete":"10",
			"timestamp":"2013-06-20 13:44:33"
			
		}
	}]
		
}


